…
Let’s start with a for loop

``` r
output = vector("list", length = 100)

for (i in 1:100){
  
  output[[i]] = sim_mean_sd(samp_size = 30)
  
}

bind_rows(output)
```

    ## # A tibble: 100 x 2
    ##     mean    sd
    ##    <dbl> <dbl>
    ##  1  3.35  4.23
    ##  2  3.86  4.03
    ##  3  3.78  4.61
    ##  4  2.85  3.43
    ##  5  2.74  4.01
    ##  6  3.12  3.95
    ##  7  3.77  4.46
    ##  8  4.55  4.72
    ##  9  2.45  3.47
    ## 10  3.61  3.78
    ## # … with 90 more rows
…
